io/javabrains/springbootstarter/topic/service/TopicService.class
io/javabrains/springbootstarter/topic/model/Topic.class
io/javabrains/CourseApiDataApplication.class
io/javabrains/springbootstarter/topic/controller/TopicController.class
io/javabrains/springbootstarter/topic/repository/TopicRepository.class
